<mxfile host="65bd71144e">
    <diagram id="XkceOWPLI2vf7PtnamzP" name="Page-1">
        <mxGraphModel dx="808" dy="547" grid="1" gridSize="10" guides="1" tooltips="1" connect="1" arrows="1" fold="1" page="1" pageScale="1" pageWidth="850" pageHeight="1100" math="0" shadow="0">
            <root>
                <mxCell id="0"/>
                <mxCell id="1" parent="0"/>
                <mxCell id="7" value="&lt;i style=&quot;font-size: 15px&quot;&gt;Coisas (dispositivos)&lt;br style=&quot;font-size: 15px&quot;&gt;&lt;/i&gt;" style="rounded=1;whiteSpace=wrap;html=1;fillColor=none;verticalAlign=bottom;spacingTop=0;fontSize=15;labelPosition=center;verticalLabelPosition=top;align=center;spacing=4;dashed=1;" parent="1" vertex="1">
                    <mxGeometry x="110" y="355" width="144" height="116" as="geometry"/>
                </mxCell>
                <mxCell id="18" value="" style="ellipse;shape=cloud;whiteSpace=wrap;html=1;fontSize=14;fillColor=none;verticalAlign=middle;rotation=-90;dashed=1;" parent="1" vertex="1">
                    <mxGeometry x="468" y="341.05" width="143.56" height="143.48" as="geometry"/>
                </mxCell>
                <mxCell id="8" value="&lt;i style=&quot;font-size: 15px&quot;&gt;Fog&lt;br style=&quot;font-size: 15px&quot;&gt;&lt;/i&gt;" style="rounded=1;whiteSpace=wrap;html=1;fillColor=none;verticalAlign=bottom;spacingTop=0;fontSize=15;labelPosition=center;verticalLabelPosition=top;align=center;spacing=4;dashed=1;" parent="1" vertex="1">
                    <mxGeometry x="270" y="354" width="168" height="116" as="geometry"/>
                </mxCell>
                <mxCell id="6" value="&lt;i style=&quot;font-size: 11px&quot;&gt;Borda Próxima&lt;br&gt;Nó Fog&lt;br&gt;&lt;/i&gt;" style="rounded=1;whiteSpace=wrap;html=1;verticalAlign=top;spacingTop=-5;fontSize=13;" parent="1" vertex="1">
                    <mxGeometry x="218" y="368" width="80" height="93" as="geometry"/>
                </mxCell>
                <mxCell id="3" value="&lt;i&gt;&lt;font style=&quot;font-size: 11px&quot;&gt;Dispositivo 1&lt;/font&gt;&lt;/i&gt;" style="rounded=1;whiteSpace=wrap;html=1;fillColor=none;verticalAlign=top;spacingTop=-5;fontSize=13;" parent="1" vertex="1">
                    <mxGeometry x="124" y="368" width="71" height="55" as="geometry"/>
                </mxCell>
                <mxCell id="4" value="cliente&lt;br&gt;Pub/Sub&lt;br style=&quot;font-size: 12px&quot;&gt;" style="ellipse;whiteSpace=wrap;html=1;fontSize=12;fillColor=none;verticalAlign=top;spacingTop=-4;" parent="1" vertex="1">
                    <mxGeometry x="130" y="387" width="60" height="33" as="geometry"/>
                </mxCell>
                <mxCell id="5" value="Pub/Sub&lt;br style=&quot;font-size: 12px&quot;&gt;broker" style="ellipse;whiteSpace=wrap;html=1;fontSize=12;verticalAlign=top;spacingTop=-4;" parent="1" vertex="1">
                    <mxGeometry x="222" y="410" width="71" height="38" as="geometry"/>
                </mxCell>
                <mxCell id="29" value="&lt;font style=&quot;font-size: 13px&quot;&gt;Associação Dispositivos-Nuvem&lt;/font&gt;" style="edgeStyle=orthogonalEdgeStyle;rounded=0;orthogonalLoop=1;jettySize=auto;html=1;fontSize=15;fillColor=#ffffff;startArrow=oval;startFill=1;endArrow=oval;endFill=1;dashed=1;entryX=0.16;entryY=0.55;entryDx=0;entryDy=0;entryPerimeter=0;endSize=10;startSize=9;labelPosition=center;verticalLabelPosition=top;align=center;verticalAlign=bottom;spacing=0;spacingTop=2;spacingBottom=-2;fontStyle=2;labelBackgroundColor=none;" parent="1" target="18" edge="1">
                    <mxGeometry relative="1" as="geometry">
                        <mxPoint x="160" y="459" as="sourcePoint"/>
                        <mxPoint x="570" y="490" as="targetPoint"/>
                        <Array as="points">
                            <mxPoint x="160" y="490"/>
                            <mxPoint x="547" y="490"/>
                        </Array>
                    </mxGeometry>
                </mxCell>
                <mxCell id="9" value="&lt;i&gt;&lt;font style=&quot;font-size: 11px&quot;&gt;Dispositivo M&lt;/font&gt;&lt;/i&gt;" style="rounded=1;whiteSpace=wrap;html=1;fontSize=14;fillColor=none;verticalAlign=middle;fontStyle=0;spacing=1;spacingTop=-3;" parent="1" vertex="1">
                    <mxGeometry x="124" y="436" width="72" height="20" as="geometry"/>
                </mxCell>
                <mxCell id="10" value="" style="shape=flexArrow;endArrow=classic;startArrow=classic;html=1;fontSize=14;fillColor=#ffffff;" parent="1" edge="1">
                    <mxGeometry width="100" height="100" relative="1" as="geometry">
                        <mxPoint x="430" y="373" as="sourcePoint"/>
                        <mxPoint x="497" y="373" as="targetPoint"/>
                    </mxGeometry>
                </mxCell>
                <mxCell id="12" value="Serviço 1" style="rounded=1;whiteSpace=wrap;html=1;fontSize=14;fillColor=none;verticalAlign=middle;fontStyle=2;spacing=1;spacingTop=-3;" parent="1" vertex="1">
                    <mxGeometry x="507" y="361" width="70" height="20" as="geometry"/>
                </mxCell>
                <mxCell id="13" value="Serviço N" style="rounded=1;whiteSpace=wrap;html=1;fontSize=14;fillColor=none;verticalAlign=top;fontStyle=2;spacing=1;spacingTop=-5;labelPosition=center;verticalLabelPosition=middle;align=center;" parent="1" vertex="1">
                    <mxGeometry x="507" y="404.5" width="70" height="55" as="geometry"/>
                </mxCell>
                <mxCell id="14" value="&lt;font style=&quot;font-size: 10px&quot;&gt;Informações&lt;br style=&quot;font-size: 10px&quot;&gt;Dispositivos&lt;/font&gt;" style="rounded=0;whiteSpace=wrap;html=1;fontSize=10;fillColor=none;verticalAlign=middle;spacingBottom=1;" parent="1" vertex="1">
                    <mxGeometry x="515" y="425" width="57" height="28" as="geometry"/>
                </mxCell>
                <mxCell id="15" value="Nó&lt;br&gt;Fog" style="rounded=1;whiteSpace=wrap;html=1;fontSize=14;fillColor=none;verticalAlign=middle;fontStyle=2;spacing=1;spacingTop=-3;" parent="1" vertex="1">
                    <mxGeometry x="377" y="359" width="47" height="33" as="geometry"/>
                </mxCell>
                <mxCell id="16" value="Nó&lt;br&gt;Fog" style="rounded=1;whiteSpace=wrap;html=1;fontSize=14;fillColor=none;verticalAlign=middle;fontStyle=2;spacing=1;spacingTop=-3;" parent="1" vertex="1">
                    <mxGeometry x="378" y="428" width="52" height="33" as="geometry"/>
                </mxCell>
                <mxCell id="17" value="Nó&lt;br&gt;Fog" style="rounded=1;whiteSpace=wrap;html=1;fontSize=14;fillColor=none;verticalAlign=middle;fontStyle=2;spacing=1;spacingTop=-3;" parent="1" vertex="1">
                    <mxGeometry x="313" y="420" width="51" height="33" as="geometry"/>
                </mxCell>
                <mxCell id="19" value="" style="shape=flexArrow;endArrow=classic;startArrow=classic;html=1;fontSize=14;entryX=0.776;entryY=0.195;entryDx=0;entryDy=0;entryPerimeter=0;fillColor=#ffffff;" parent="1" edge="1">
                    <mxGeometry width="100" height="100" relative="1" as="geometry">
                        <mxPoint x="430" y="443.61" as="sourcePoint"/>
                        <mxPoint x="496.9775000000002" y="445.38300000000004" as="targetPoint"/>
                    </mxGeometry>
                </mxCell>
                <mxCell id="21" value="Internet" style="text;html=1;strokeColor=none;fillColor=none;align=center;verticalAlign=middle;whiteSpace=wrap;rounded=0;dashed=1;fontSize=15;fontStyle=2" parent="1" vertex="1">
                    <mxGeometry x="438" y="329.63" width="40" height="20.37" as="geometry"/>
                </mxCell>
                <mxCell id="22" value="Nuvem" style="text;html=1;strokeColor=none;fillColor=none;align=center;verticalAlign=middle;whiteSpace=wrap;rounded=0;dashed=1;fontSize=15;fontStyle=2" parent="1" vertex="1">
                    <mxGeometry x="515" y="328.26" width="40" height="20.37" as="geometry"/>
                </mxCell>
                <mxCell id="23" value="" style="endArrow=none;html=1;fontSize=15;entryX=0;entryY=0.5;entryDx=0;entryDy=0;exitX=1;exitY=0.25;exitDx=0;exitDy=0;" parent="1" source="6" target="15" edge="1">
                    <mxGeometry width="50" height="50" relative="1" as="geometry">
                        <mxPoint x="320" y="550" as="sourcePoint"/>
                        <mxPoint x="370" y="500" as="targetPoint"/>
                    </mxGeometry>
                </mxCell>
                <mxCell id="24" value="" style="endArrow=none;html=1;fontSize=15;entryX=0.25;entryY=1;entryDx=0;entryDy=0;exitX=0.5;exitY=0;exitDx=0;exitDy=0;" parent="1" source="17" target="15" edge="1">
                    <mxGeometry width="50" height="50" relative="1" as="geometry">
                        <mxPoint x="308" y="401.25" as="sourcePoint"/>
                        <mxPoint x="387" y="385.5" as="targetPoint"/>
                    </mxGeometry>
                </mxCell>
                <mxCell id="25" value="" style="endArrow=none;html=1;fontSize=15;entryX=0.75;entryY=1;entryDx=0;entryDy=0;exitX=0.25;exitY=0;exitDx=0;exitDy=0;" parent="1" source="16" target="15" edge="1">
                    <mxGeometry width="50" height="50" relative="1" as="geometry">
                        <mxPoint x="348.5" y="430" as="sourcePoint"/>
                        <mxPoint x="398.75" y="401.9999999999999" as="targetPoint"/>
                    </mxGeometry>
                </mxCell>
                <mxCell id="26" value="" style="endArrow=none;html=1;fontSize=15;entryX=0;entryY=0.5;entryDx=0;entryDy=0;exitX=1;exitY=0.75;exitDx=0;exitDy=0;" parent="1" source="6" target="17" edge="1">
                    <mxGeometry width="50" height="50" relative="1" as="geometry">
                        <mxPoint x="401" y="438" as="sourcePoint"/>
                        <mxPoint x="422.25" y="401.9999999999999" as="targetPoint"/>
                    </mxGeometry>
                </mxCell>
                <mxCell id="30" value="" style="endArrow=none;html=1;labelBackgroundColor=none;fontSize=15;startSize=9;endSize=10;fillColor=#ffffff;" parent="1" edge="1">
                    <mxGeometry width="50" height="50" relative="1" as="geometry">
                        <mxPoint x="129" y="427" as="sourcePoint"/>
                        <mxPoint x="190" y="427" as="targetPoint"/>
                    </mxGeometry>
                </mxCell>
                <mxCell id="31" value="" style="endArrow=none;html=1;labelBackgroundColor=none;fontSize=15;startSize=9;endSize=10;fillColor=#ffffff;" parent="1" edge="1">
                    <mxGeometry width="50" height="50" relative="1" as="geometry">
                        <mxPoint x="129" y="432" as="sourcePoint"/>
                        <mxPoint x="190" y="432" as="targetPoint"/>
                    </mxGeometry>
                </mxCell>
                <mxCell id="33" value="" style="endArrow=none;html=1;labelBackgroundColor=none;fontSize=15;startSize=9;endSize=10;fillColor=#ffffff;" parent="1" edge="1">
                    <mxGeometry width="50" height="50" relative="1" as="geometry">
                        <mxPoint x="513" y="389.43" as="sourcePoint"/>
                        <mxPoint x="574" y="389.43" as="targetPoint"/>
                    </mxGeometry>
                </mxCell>
                <mxCell id="35" value="" style="endArrow=none;html=1;labelBackgroundColor=none;fontSize=15;startSize=9;endSize=10;fillColor=#ffffff;" parent="1" edge="1">
                    <mxGeometry width="50" height="50" relative="1" as="geometry">
                        <mxPoint x="513" y="396.43000000000006" as="sourcePoint"/>
                        <mxPoint x="574" y="396.43000000000006" as="targetPoint"/>
                    </mxGeometry>
                </mxCell>
            </root>
        </mxGraphModel>
    </diagram>
</mxfile>