@startuml classPersistence
allow_mixing

!include ../../generalFunctions.puml

package "Persistence" $colorPackage()
{
    class Persistence $colorPersistence()
    {
        #sqlite3*: dbNode
        #sqlite3*: dbPubs
        #sqlite3*: dbFeeds
        #char: verbose
        --
        +persistenceInit()
        +persistenceFinish()
        +showDbMsg()
    }
    class dbNode $colorPersistence()
    {
        #sqlite3*: dbNode
        -const char*: nodeDBName
        --
        +int: dbNodeInit()
        +int: insertNode()
        +int: readNode()
    }

    enum msgType #MistyRose
    {

        MSG_ERROR
        MSG_WARNING
        MSG_LOG
    }

    !includesub classDataStructure.puml!node

    dbNode *-down-> node

    Persistence *-down-> msgType

    class dbPubs $colorPersistence()
    {
        #sqlite3: dbPubs
        --
        +int: dbPubsInit()
        ..
        +int: insertInviteIssued()
        +int: readInviteIssued()
        +int: updateInviteIssued()
        +int: prepareInviteIssued()
        +int: nextInviteIssued()
        ..
        +int: insertMyPub()
        +int: readMyPub()
        +int: prepareMyPubs()
        +int: nextMyPubs()
    }

    class dbFeeds $colorPersistence()
    {
        #sqlite3: dbFeeds
        --
        +int: dbFeedsInit()
        +int: insertFeedHeader()
        +int: readFeedHeader()
        +int: prepareFeedHeader()
        +int: nextFeedHeader()
        +int: verifyFeedHeader()

        +int: readMsgBlock()
        +int: insertMsgBlock()
        +int: getLastMsgBlock()

        ..
        +const char* feedTableName()
        +int: getLastFeedDetail()

    }

    !includesub classDataStructure.puml!feed
    '!includesub classDataStructure.puml!msgBlock

    dbFeeds *-down-> feedHeader
    'dbFeeds *-down-> msgBlock

    !includesub classDataStructure.puml!pubs

    enum "Persistence Method Returns" as persistReturns #MistyRose
    {

        PERSISTENCE_OK
        PERSISTENCE_ERR_GENERAL
        PERSISTENCE_ERR_OPEN
        PERSISTENCE_ERR_CLOSE
        PERSISTENCE_ERR_BEGIN
        PERSISTENCE_ERR_CREATE_TABLE
        PERSISTENCE_ERR_INSERT
        PERSISTENCE_ERR_READ
        PERSISTENCE_ERR_UPDATE
        PERSISTENCE_ERR_DELETE
        PERSISTENCE_ERR_COMMIT
        PERSISTENCE_NO_ROWS
        const char*: getMessageReturns()
    }

    Persistence *-down->dbPubs
    Persistence *-down->dbNode
    Persistence *-down->dbFeeds
    Persistence *-down-> persistReturns

    dbPubs *-down-> inviteIssued
    dbPubs *-down-> myPub

    'Hidden connections to best arrange
    msgType -[hidden]right->dbNode
    dbNode -[hidden]right->dbPubs
    dbPubs -[hidden]right->dbFeeds
    dbFeeds -[hidden]right->persistReturns
    myPub -[hidden]down-> inviteIssued
    inviteStatus -[hidden]left->inviteReturns

    @enduml