@startuml actForkExample-10

!include ../sequenceFunctions.puml

start

:$jsonText("Msg R1-1");
:$jsonText("Msg R1-2");
:$jsonText("<&menu>");
:$jsonText("Msg R1-50");
:$jsonText("Msg R1-51");
:$jsonText("<&menu>");
:$jsonText("Msg R1-100");

stop
@end