@startuml actForkExample-20 

!include ../sequenceFunctions.puml

start

:$jsonText("Msg R1-1");
:$jsonText("Msg R1-2");
:$jsonText("<&menu>");
:$jsonText("Msg R1-50");

fork 
    :$jsonText("Msg R1-51");
    :$jsonText("<&menu>");
    :$jsonText("Msg R1-100");
fork again
    #DarkSalmon:$jsonText("NewMsg R1-51");
    #DarkSalmon:$jsonText("<&menu>");
    #DarkSalmon:$jsonText("NewMsg R1-150");
end fork

stop

@end