@startuml seqAttack10-10

!include ../sequenceFunctions.puml

skinparam sequenceMessageAlign center
hide footbox

actor "Atacante" as Attacker 

create  "Pub Falso" as FakePub $colorParticipantPub() #DarkSalmon

Attacker -> FakePub : Criar um\nPub Falso

activate FakePub #DarkSalmon

Attacker <-- FakePub : Par de chaves

Attacker -> FakePub : Solicitação\nde Convite

Attacker <-- FakePub : Convite
deactivate FakePub

create "Dispositivo\nAtacante" as AttackDev $colorParticipantDevice("A") >> #DarkSalmon
Attacker -> AttackDev : Criar um\nDispositivo
activate AttackDev #DarkSalmon
Attacker -> AttackDev : Instalar\nConvite
deactivate AttackDev

FakePub <- AttackDev : Solicitação\nde Ticket
activate FakePub #DarkSalmon

alt Convite Válido
  FakePub --> AttackDev: Ticket
else Convite Inválido
  FakePub --> AttackDev: Mensagem de Erro 
  deactivate FakePub
end

@enduml
