@startuml seqAttack30-10

!include ../sequenceFunctions.puml

skinparam sequenceMessageAlign center
hide footbox

box "Offline" #Wheat
participant "Toradex (T)\n**Pubs: 1, 2**" as Toradex $colorParticipantDevice("T")
participant "Raspberry (R)\n**Pubs: 1, 2**" as Rasp $colorParticipantDevice("R")
end box

rnote over Toradex
  <&caret-bottom>$jsonText("P01-T")
  |_ $invite("MsgT-(1 a 100)")
  <&caret-bottom>$jsonText("P02-T")
  |_ $invite("MsgT-(201 a 300)")
endrnote

/ rnote over Rasp
  <&caret-bottom>$jsonText("P01-R")
  <&caret-bottom>$jsonText("P02-R")
endrnote

Toradex <-> Rasp : Sincronização

rnote over Toradex
  <&caret-bottom>$jsonText("P01-T")
  |_ $invite("MsgT-(1 a 100)")
  <&caret-bottom>$jsonText("P02-T")
  |_ $invite("MsgT-(201 a 300)")
endrnote

/ rnote over Rasp
  <&caret-bottom>$jsonText("P01-T")
  |_ $invite("MsgT-(1 a 100)")
  <&caret-bottom>$jsonText("P02-T")
  |_ $invite("MsgT-(201 a 300)")
endrnote

create actor "Atacante" as Attacker 
Rasp <-> Attacker : Acesso\nIndevido

Rasp <- Attacker : Alterações no\nBanco de dados

activate Rasp #DarkSalmon
deactivate
rnote over Rasp #PeachPuff
  <&caret-bottom>$jsonText("P01-T")
  |_ $invite("MsgT-(1 a 100)")
  |_ $invite("<color:red>MsgT-Nova-101")
  <&caret-bottom>$jsonText("P02-T")
  |_ $invite("MsgT-(201 a 250)")
  |_ $invite("<color:red>MsgT-Nova-251")
  |_ $invite("MsgT-(251 a 300)")
endrnote

@enduml
