@startuml seqAttackEavesdropping-20

!include ../sequenceFunctions.puml

skinparam sequenceMessageAlign center
hide footbox

box "Offline" #Wheat
participant "Toradex (T)\n**Pubs: 1, 2**" as Toradex $colorParticipantDevice("T")
participant "Dispositivo\nAtacante (A)" as AttackDev $colorParticipantDevice("A") #DarkSalmon
participant "Opção de\nataque" as AttackDev2 $colorParticipantDevice("A") #DarkSalmon
collections "Pubs\nAfiliados" as myPubs $colorParticipantDevice("A") #DarkSalmon
end box

rnote over Toradex
  <&caret-bottom>$jsonText("P01-T")
  |_ $invite("MsgT-(1 a 100)")
  <&caret-bottom>$jsonText("P02-T")
  |_ $invite("MsgT-(201 a 300)")
endrnote

/ rnote over myPubs #LightCoral
  <&caret-bottom>$jsonText("P01-R01")
endrnote

Toradex <-> AttackDev : Sincronização

activate Toradex

rnote over Toradex $colorNoteCmd()
  <&caret-bottom>$jsonText("Comando: ")$code("GET_FEED_HEADER")
  |_ $publicKey("Emissor: T")
  |_ $random("nonce: <0xHEX>")
endrnote

deactivate Toradex

Toradex -> AttackDev : Comando $code("GET_FEED_HEADER")

activate AttackDev

AttackDev -> myPubs : Próximo Feed
AttackDev <-- myPubs

AttackDev -> AttackDev: Assina nonce

rnote over AttackDev $colorNoteCmd()
  <&caret-bottom>$jsonText("Comando: ")$code("POST_FEED_HEADER")
  |_ $publicKey("Pub: P01")
  |_ $publicKey("Emissor: R1")
  |_ $ticket("Ticket: P01-R1")
  |_ $publicKey("<color:red>Emissor da Mensagem: R")
  |_ $ticket("Ticket: P01-R")
  |_ $sign("<color:red>Assinatura do nonce recebido")
  |_ $random("nonce: <0xHEX>")
endrnote

/ rnote over AttackDev2 $colorNoteCmd()
  <&caret-bottom>$jsonText("Comando: ")$code("POST_FEED_HEADER")
  |_ $publicKey("Pub: P01")
  |_ $publicKey("Emissor: R1")
  |_ $ticket("Ticket: P01-R1")
  |_ $publicKey("Emissor da Mensagem: A")
  |_ $ticket("Ticket: <color:red>P01-A")
  |_ $sign("Assinatura do nonce recebido")
  |_ $random("nonce: <0xHEX>")
endrnote

 
Toradex <- AttackDev : Comando $code("POST_FEED_HEADER")
deactivate AttackDev

activate Toradex

alt #transparent Toradex é afiliado ao Pub recebido
  Toradex -> Toradex: Testa Assinatura e\nTicket Pub Feed-D02
  alt #transparent Assinatura ou Ticket Inválidos
    rnote over Toradex $colorNoteCmd()
      <&caret-bottom>$jsonText("Comando: ")$code("RETURN_MESSAGE")
      |_ $publicKey("Emissor: Toradex")
      |_ $publicKey("Destino: A")
      |_ $jsonText("Código: "+$code("INVALID_SIGNATURE"))
    endrnote
    Toradex -> AttackDev !! : Comando $code("RETURN_MESSAGE")
end

deactivate Toradex


@enduml
