@startuml seqDataRecoveryDev2-20


skinparam sequenceMessageAlign center
hide footbox

!include ../sequenceFunctions.puml

skinparam sequenceMessageAlign center
hide footbox

actor "Administrador" as Adm 
participant "Pub 1\n**Pubs: 1**" as Pub1 $colorParticipantPub() #APPLICATION
participant "Pub 2\n**Pubs: 2**" as Pub2 $colorParticipantPub() #APPLICATION
participant "Dispositivo 2\n**Pubs: 1, 2**" as Dev2 << (2,#ADD1B2) >>


rnote over Dev2
  $jsonText("---")
endrnote

Adm -> Pub1: Solicitação de\nConvite
activate Pub1
Adm <-- Pub1: $file("Convite Pub 1")
deactivate Pub1

Adm -> Pub2: Solicitação de\nConvite
activate Pub2
Adm <-- Pub2: $file("Convite Pub 2")
deactivate Pub2

Adm -> Dev2: Instalação do $file("Convite Pub 1")

Pub1 <- Dev2: Solicitação do Ticket Pub 1

alt Convite Válido
  activate Pub1
  Pub1 --> Dev2: $invite("Ticket Pub 1")
  deactivate Pub1
else Convite Inválido
  Pub1 --> Dev2: Mensagem de Erro 
end

Adm -> Dev2: Instalação do $file("Convite Pub 2")

Pub2 <- Dev2: Solicitação do Ticket Pub 2

alt Convite Válido
  activate Pub2
  Pub2 --> Dev2: $invite("Ticket Pub 2")
  deactivate Pub2
else Convite Inválido
  Pub2 --> Dev2: Mensagem de Erro 
end
@enduml
