@startuml seqForkMsgs-30

!include ../sequenceFunctions.puml

skinparam sequenceMessageAlign center
hide footbox

box "Internet" #Azure
participant "Raspberry (R)\n**Pubs: 1, 2**" as Rasp $colorParticipantDevice("R")
participant "Pub 1 (P01)\n**Pubs: 1**" as Pub1 $colorParticipantPub() #APPLICATION
end box

rnote over Rasp
  <&caret-right>$jsonText("P01-P01")
  <&caret-bottom>$jsonText("P01-R")
  |_ $invite("MsgR1-(1 a 50)")
  |_ $invite("<color:red>NewMsg-(51 a 150)")
  <&caret-right>$jsonText("P02-P02")
  <&caret-right>$jsonText("P02-R")
endrnote

/ rnote over Pub1
  <&caret-bottom>$jsonText("P01-P01")
  |_ $invite("MsgP1-(1 a 100)")
  <&caret-bottom>$jsonText("P01-R")
  |_ $invite("MsgR-(1 a 100)")
endrnote

Rasp <-> Pub1: Sincronização

rnote over Rasp $colorNoteCmd()
  <&caret-bottom>$jsonText("Comando: ")$code("POST_MESSAGE")
  |_ $publicKey("Pub: P01")
  |_ $publicKey("Emissor: R")
  |_ $ticket("Ticket: P01-R")
  |_ $jsonText("Hash Anterior: <color:red>Hash.Seq 100")
  |_ $jsonText("Sequencia: <color:red>101")
  |_ $jsonText("...")
endrnote

Rasp -> Pub1: Comando $code("POST_MESSAGE")

activate Pub1
Pub1 -> Pub1: Hash Seq 100\nnão confere

Rasp <- Pub1 !!: Mensagem Recusada
deactivate Pub1

@enduml
