@startuml seqSyncOffline-20

!include ../sequenceFunctions.puml

skinparam sequenceMessageAlign center
hide footbox

box "Offline" #Wheat
participant "Toradex (T)\n**Pubs: 1, 2**" as Toradex $colorParticipantDevice("T")
participant "Raspberry (R)\n**Pubs: 1, 2**" as Rasp $colorParticipantDevice("R")
end box

box "Internet" #Azure
participant "Pub 1 (P01)\n**Pubs: 1**" as Pub1 $colorParticipantPub() #APPLICATION
participant "Pub 2 (P02)\n**Pubs: 2**" as Pub2 $colorParticipantPub() #APPLICATION
end box

rnote over Toradex
  <&caret-bottom>$jsonText("P01-T")
  |_ $invite("MsgT-(1 a 100)")
  <&caret-bottom>$jsonText("P02-T")
  |_ $invite("MsgT-(201 a 300)")
endrnote

/ rnote over Rasp
  <&caret-bottom>$jsonText("P01-P01")
  |_ $invite("MsgP1-(1 a 100)")
  <&caret-bottom>$jsonText("P01-R")
  |_ $invite("MsgR-(1 a 100)")
  <&caret-bottom>$jsonText("P02-P02")
  |_ $invite("MsgP2-(201 a 300)")
  <&caret-bottom>$jsonText("P02-R")
  |_ $invite("MsgR-(201 a 300)")
endrnote

/ rnote over Pub1
  <&caret-bottom>$jsonText("P01-P01")
  |_ $invite("MsgP1-(1 a 100)")
  <&caret-bottom>$jsonText("P01-R")
  |_ $invite("MsgR-(1 a 100)")
endrnote

/ rnote over Pub2
  <&caret-bottom>$jsonText("P02-P02")
  |_ $invite("MsgP2-(201 a 300)")
  <&caret-bottom>$jsonText("P02-R")
  |_ $invite("MsgR-(201 a 300)")
endrnote

Toradex <-> Rasp : Sincronização

rnote over Toradex
  <&caret-bottom>$jsonText("P01-P01")
  |_ $invite("MsgP1-(1 a 100)")
  <&caret-bottom>$jsonText("P01-R")
  |_ $invite("MsgR-(1 a 100)")
  <&caret-bottom>$jsonText("P01-T")
  |_ $invite("MsgT-(1 a 100)")
  <&caret-bottom>$jsonText("P02-P02")
  |_ $invite("MsgP2-(201 a 300)")
  <&caret-bottom>$jsonText("P02-R")
  |_ $invite("MsgR-(201 a 300)")
  <&caret-bottom>$jsonText("P02-T")
  |_ $invite("MsgT-(201 a 300)")
endrnote

/ rnote over Rasp
  <&caret-bottom>$jsonText("P01-P01")
  |_ $invite("MsgP1-(1 a 100)")
  <&caret-bottom>$jsonText("P01-R")
  |_ $invite("MsgR-(1 a 100)")
  <&caret-bottom>$jsonText("P01-T")
  |_ $invite("MsgT-(1 a 100)")
  <&caret-bottom>$jsonText("P02-P02")
  |_ $invite("MsgP2-(201 a 300)")
  <&caret-bottom>$jsonText("P02-R")
  |_ $invite("MsgR-(201 a 300)")
  <&caret-bottom>$jsonText("P02-T")
  |_ $invite("MsgT-(201 a 300)")
endrnote

@enduml
