@startuml sequenceCreateMsg

!include ../../generalFunctions.puml
skinparam sequenceMessageAlign direction

participant createMsg $colorCmdLine()
participant dbNode $colorPersistence()
participant dbPubs $colorPersistence()
participant dbFeeds $colorPersistence()
participant dataStructure $colorDataStructure()

createMsg -> dbNode: $code("readNode()")
createMsg <-- dbNode

createMsg -> dbPubs: $code("readMyPub()")
activate dbPubs
createMsg <-- dbPubs: $code("Ticket")
deactivate dbPubs

alt There is no Ticket or Invite

    createMsg -> createMsg
    activate createMsg
    destroy createMsg
    deactivate createMsg
end

createMsg -> dbFeeds: $code("verifyFeedHeader()")
activate dbFeeds
note right
    Insert register into feedHeader Table
    and create table msgBlock
    for pair Pub x Sender
    if not exist
end note
createMsg <-- dbFeeds
deactivate dbFeeds

createMsg -> dbFeeds: $code("getLastMsgBlock()")
activate dbFeeds
createMsg <-- dbFeeds: $code("Last HASH")
deactivate dbFeeds 

createMsg -> dataStructure: $code("createMsgBlock()")
activate dataStructure

alt Private Message
    dataStructure -> dataStructure: $code("encryptMsgBlock()")
    activate dataStructure
    deactivate dataStructure
end

dataStructure -> dataStructure: $code("signMsgBlock()")
activate dataStructure
deactivate dataStructure

dataStructure -> dataStructure: $code("hashMsgBlock()")
activate dataStructure
deactivate dataStructure

createMsg <-- dataStructure: $code("msgBlock")
deactivate dataStructure

createMsg -> dbFeeds: $code("insertMsgBlock()")
activate dbFeeds



createMsg <-- dbFeeds
deactivate dbFeeds 


@enduml