@startuml actCreateBlockMsg

!include ../sequenceFunctions.puml

start

fork 
    -[hidden]->
    :$secretKey("Emissor");
    detach
fork again
    -[hidden]->
    :$jsonText("Bloco da Mensagem")
     |_ $jsonText("Hash Anterior")
     |_ $jsonText("Sequencia")
     |_ $publicKey("Destinatario")
     |_ $jsonText("nonce")
     |_ $jsonText("Msg Privada? (0 - Não / 1 - Sim)")
     |_ $invite("Corpo da Mensagem");
    detach
    :$jsonText("nonce");
    detach
end fork

:$sign("Assinatura da Mensagem");
stop

@end