@startuml actDecryptMsg

!include ../sequenceFunctions.puml

start

fork 
    -[hidden]->
    :$publicKey("Dispositivo");
    detach
fork again
    -[hidden]->
    :$secretKey("Destinatário");
    detach
fork again
    -[hidden]->
    :$encrypt("Mensagem");
    detach
end fork
:$decrypt("Messagem");

stop

@end