@startuml seqCreateInvites

!include ../sequenceFunctions.puml

skinparam sequenceMessageAlign center
hide footbox

actor "Administrador" as Adm

participant "Pub\nP01" as Pub $colorParticipantPub()

collections "Convites\nEmitidos" as invites $colorParticipantPub() $colorPersistence()

Adm -> Pub : Solicitação de\n//n// de convites

activate Pub 

loop //n// vezes

Pub -> invites : Criar convite
rnote over invites
  <&caret-bottom>$invite("P01 - Convite //i//")
  |_ $publicKey("Dispositivo: Nulo")
  |_ $status("Status: CRIADO")
endrnote

Adm <-- Pub : $file("P01 - Convite //i//")

end 

deactivate Pub

rnote over Adm
  $file("P01 - Convite 1")
  $file("P01 - Convite 2")
  <&menu>
  $file("P01 - Convite //n//")
endrnote

/ rnote over invites
  <&caret-right>$invite("P01 - Convite 1")
  <&caret-right>$invite("P01 - Convite 2")
  <&menu>
  <&caret-right>$invite("P01 - Convite //n//")
endrnote

@enduml
