@startuml seqGetTicketHS
@startuml seqGetTicketHS

!include ../sequenceFunctions.puml

skinparam sequenceMessageAlign center
hide footbox


participant "Dispositivo\nD01" as Device $colorParticipantDevice("D")

participant "Pub\nP01" as Pub $colorParticipantPub()
collections  "Convites\nEmitidos\nPub P01" as invites $colorParticipantPub() $colorPersistence()


Device -> Device: Preparar\nComando

rnote over Device $colorNoteCmd()
  <&caret-bottom>$jsonText("Comando: ")$code("GET_TICKET")
  |_ $publicKey("Emissor: D01")
  |_ $publicKey("Pub: P01")
  |_ $random("nonce: <0xHEX>")
  |_ $encrypt("Convite: Convite 3")
  |_ $sign("Assinatura: <0xHEX>")
endrnote

/ rnote over invites
  <&caret-right>$invite("P01 - Convite 1")
  <&caret-right>$invite("P01 - Convite 2")
  <&caret-bottom>$invite("P01 - Convite 3")
  |_ $publicKey("Dispositivo: Nulo")
  |_ $status("Status: CRIADO")
  <&caret-right>$invite("P01 - Convite 4")
  <&menu>
  <&caret-right>$invite("P01 - Convite //n//")
endrnote

Pub <- Device: Comando $code("GET_TICKET")
activate Pub

Pub -> Pub: Verifica Comando

alt Erro na Assinatura ou Cifragem?

  rnote over Pub $colorNoteCmd()
    <&caret-bottom>$jsonText("Comando: ")$code("RETURN_MESSAGE")
    |_ $publicKey("Emissor: P01")
    |_ $publicKey("Destino: D01")
    |_ $jsonText("Código: "+$code("INVALID_SIGNATURE") + " ou " + $code("INVALID_ENCRYPT"))
  endrnote

  Device <-- Pub : Comando $code("RETURN_MESSAGE")

else Mensagem recebida sem estar cifrada

  !retCode = $code("INVITE_DENIED_ENCRYPT")

  rnote over Pub $colorNoteCmd()
    <&caret-bottom>$jsonText("Comando: ")$code("RETURN_MESSAGE")
    |_ $publicKey("Emissor: P01")
    |_ $publicKey("Destino: D01")
    |_ $jsonText("Código: " + $code("INVITE_DENIED_PUBLIC_MSG"))
  endrnote

  /rnote over invites
    <&caret-bottom>$invite("Convite 3")
    |_ $publicKey("Dispositivo: D01")
    |_ $status("Status: ENVIADO POR MSG PÚBLICA")
  endrnote


  Device <-- Pub : Comando $code("RETURN_MESSAGE")
  deactivate Pub

end


@enduml
