@startuml seqInstallInvite


!include ../sequenceFunctions.puml

skinparam sequenceMessageAlign center
hide footbox


actor "Administrador" as Adm

participant "Dispositivo\nD01" as Device $colorParticipantDevice("D")
collections "Pubs\nAfiliados" as myPubs $colorParticipantDevice("D") $colorPersistence()
rnote over Device
  $publicKey("Device 1")
  $secretKey("Device 1")
endrnote

/ rnote over myPubs
  **--**
endrnote

Adm -> Device: Instalação do  Convite\n$file("P01 - Convite 3")

/ rnote over myPubs
  <&caret-bottom>$publicKey("Pub: P01")
  |_ $invite("Convite: Convite 3")
  |_ $ticket("Ticket: Nulo")
  |_ $status("Status: RECEBIDO")
endrnote

@enduml
