@startuml seqSyncMessages-1

!include ../sequenceFunctions.puml

skinparam sequenceMessageAlign center
hide footbox

box "Dispositivo 1" #White
participant "Dispositivo\nD01" as D01 $colorParticipantDevice("1")
collections "Pubs\nAfiliados" as myPubsD1 $colorParticipantDevice("1") $colorPersistence()
collections "Feeds" as FeedsD1 $colorParticipantDevice("1") $colorPersistence()
end box

box "Dispositivo 2" #White
participant "Dispositivo\nD02" as D02 $colorParticipantDevice("2")
collections "Pubs\nAfiliados" as myPubsD2 $colorParticipantDevice("2") $colorPersistence()
collections "Feeds" as FeedsD2 $colorParticipantDevice("2") $colorPersistence()
end box

' rnote over myPubsD1
'   <&caret-bottom>$publicKey("Pub: P01")
'   |_ $ticket("Ticket 3")
'   <&caret-bottom>$publicKey("Pub: P03")
'   |_ $ticket("Ticket 6")
' endrnote

' / rnote over myPubsD2
'   <&caret-bottom>$publicKey("Pub: P02")
'   |_ $ticket("Ticket 1")
'   <&caret-bottom>$publicKey("Pub: P03")
'   |_ $ticket("Ticket 8")
' endrnote

' / rnote over FeedsD1 $colorPub1()
'   <&caret-bottom>$jsonText("P01-P01")
'   <&caret-bottom>$jsonText("P01-P02")
'   <&caret-bottom>$jsonText("P01-P03")
'   <&caret-bottom>$jsonText("P01-D01")
'   <&caret-bottom>$jsonText("P01-D04")
' endrnote
' / rnote over FeedsD2 $colorPub3()
'   <&caret-bottom>$jsonText("P03-P03")
'   <&caret-bottom>$jsonText("P03-D01")
'   <&caret-bottom>$jsonText("P03-D02")
'   |_ $jsonText("Msg2 <&arrow-right> P03")
' endrnote
' rnote over FeedsD1 $colorPub3()
'   <&caret-bottom>$jsonText("P03-P03")
'   <&caret-bottom>$jsonText("P03-D01")
'   |_ $jsonText("Msg1 <&arrow-right> D02")
'   <&caret-bottom>$jsonText("P03-D02")
' endrnote
' / rnote over FeedsD2 $colorPub2()
'   <&caret-bottom>$jsonText("P02-P01")
'   <&caret-bottom>$jsonText("P02-P02")
'   <&caret-bottom>$jsonText("P02-P03")
'   <&caret-bottom>$jsonText("P02-D02")
'   |_ $jsonText("Msg3 <&arrow-right> D03")
'   <&caret-bottom>$jsonText("P02-D03")
'   <&caret-bottom>$jsonText("P02-D04")
'endrnote

loop #transparent Para cada Feed de Pubs comuns
  D01 -[hidden]-> D01
  activate D01
  rnote over D01 $colorNoteCmd()
    <&caret-bottom>$jsonText("Comando: ")$code("GET_FEED_DETAIL")
    |_ $publicKey("Pub: Pub Feed")
    |_ $publicKey("Emissor: Emissor Feed")
    |_ $ticket("Ticket: Ticket Feed")
  endrnote


   D01 -> D02 : Comando $code("GET_FEED_DETAIL")
   deactivate D01

  activate D02

   D02 -> D02: Verifica Ticket

  alt #transparent Ticket Invalido
    rnote over D02 $colorNoteCmd()
      <&caret-bottom>$jsonText("Comando: ")$code("RETURN_MESSAGE")
      |_ $publicKey("Emissor: D02")
      |_ $publicKey("Destino: D01")
      |_ $jsonText("Código: "+$code("INVALID_TICKET"))
    endrnote

    D01 <- D02: Comando $code("RETURN_MESSAGE")

  else

    D02 -> FeedsD2 : Consulta Feed
    D02 <-- FeedsD2

    rnote over D02 $colorNoteCmd()
      <&caret-bottom>$jsonText("Comando: ")$code("POST_FEED_DETAIL")
      |_ $publicKey("Pub: Pub Feed")
      |_ $publicKey("Emissor: Emissor Feed")
      |_ $ticket("Ticket: Ticket Feed")
      |_ $jsonText("Última sequência: Sequencial da Última Mensagem")
      |_ $jsonText("Último Código Hash: Hash do último bloco")
    endrnote


    D01 <- D02: Comando $code("POST_FEED_DETAIL") 
    deactivate D02

    activate D01

    D01 -> D01: Verifica Ticket

    alt #transparent Tícket Inválido
      D01 -[hidden]-> D01

      rnote over D01 $colorNoteCmd()
        <&caret-bottom>$jsonText("Comando: ")$code("RETURN_MESSAGE")
        |_ $publicKey("Emissor: D01")
        |_ $publicKey("Destino: D02")
        |_ $jsonText("Código: "+$code("INVALID_TICKET"))
      endrnote
      D01 -> D02: Comando $code("RETURN_MESSAGE") 

    end
  end

end loop

@enduml
