@startuml seqSyncMessages-2

!include ../sequenceFunctions.puml

skinparam sequenceMessageAlign center
hide footbox

box "Dispositivo 1" #White
participant "Dispositivo\nD01" as D01 $colorParticipantDevice("1")
collections "Pubs\nAfiliados" as myPubsD1 $colorParticipantDevice("1") $colorPersistence()
collections "Feeds" as FeedsD1 $colorParticipantDevice("1") $colorPersistence()
end box

box "Dispositivo 2" #White
participant "Dispositivo\nD02" as D02 $colorParticipantDevice("2")
collections "Pubs\nAfiliados" as myPubsD2 $colorParticipantDevice("2") $colorPersistence()
collections "Feeds" as FeedsD2 $colorParticipantDevice("2") $colorPersistence()
end box

loop #transparent Para cada Feed de Pubs Comuns
  D01 <- D02: Comando $code("POST_FEED_DETAIL") 

  activate D01

  alt #transparent Tícket Válido
    D01 -[hidden]-> D01

    D01 -> D01: Verifica Sequência recebida

    alt #transparent Ult Seq D02 <= Ult Seq D01
      D01 -> D01: Seq <&arrow-left> Último Sequencial de D02;\nCompara Hashs;
      alt #transparent Hash D02 diferente de Hash D01 
        rnote over D01 $colorNoteCmd()
          <&caret-bottom>$jsonText("Comando: ")$code("RETURN_MESSAGE")
          |_ $publicKey("Emissor: D01")
          |_ $publicKey("Destino: D02")
          |_ $jsonText("Código: "+$code("INVALID_HASH"))
        endrnote
        
        D01 -> D02: Comando $code("RETURN_MESSAGE") 

        deactivate D01
        'destroy D01
      else

        loop #transparent Até Seq == Ultimo sequencial de D01 ou Erro
          D01 -> D01: Seq <&arrow-left> Seq + 1
          activate D01
          rnote over D01 $colorNoteCmd()
            <&caret-bottom>$jsonText("Comando: ")$code("POST_MESSAGE")
            |_ $publicKey("Pub: Pub Feed")
            |_ $publicKey("Emissor: Emissor Feed")
            |_ $ticket("Ticket: Ticket Feed")
            |_ $jsonText("Hash Anterior: <0xHEX>")
            |_ $jsonText("Sequencia: <seq>")
            |_ $publicKey("Destinatário")
            |_ $jsonText("Mensagem Privada?")
            |_ $random("Nonce: <0xHEX>")
            |_ $invite("Menssagem")
            |_ $sign("Assinatura")
            |_ $jsonText("Hash do Bloco: <0xHEX>")
            |_ $jsonText("Confirmações: <qtd>")
          endrnote
          D01 -> D02: Comando $code("POST_MESSAGE") 
          deactivate D01

          activate D02

          D02 -> D02: Verifica Mensagem
          
          alt #transparent Mensagem OK?
            D02 -> FeedsD2: Armazena mensagem no Feed
            rnote over D02 $colorNoteCmd()
              <&caret-bottom>$jsonText("Comando: ")$code("RETURN_MESSAGE")
              |_ $publicKey("Emissor: D01")
              |_ $publicKey("Destino: D02")
              |_ $jsonText("Código: "+$code("OK"))
            endrnote
          else 
            rnote over D02 $colorNoteCmd()
              <&caret-bottom>$jsonText("Comando: ")$code("RETURN_MESSAGE")
              |_ $publicKey("Emissor: D01")
              |_ $publicKey("Destino: D02")
              |_ $jsonText("Código: "+$code("<Código de Erro>"))
            endrnote
          end
          D01 <- D02: Comando $code("RETURN_MESSAGE") 
          deactivate D02
        end loop
      end
    end



  end


end loop

@enduml
