@startuml nodeMngtUserCase
' Use case for Node Management

!include ../../generalFunctions.puml

left to right direction
actor User as u
actor Pub 
package "Node Management" {
    usecase "Create Keys" as createKeys $colorCmdLine()
    usecase "Import Keys" as importKeys $colorCmdLine()
    usecase "Create Invite" as createInvite $colorCmdLine()
    usecase "Import Invite" as importInvite $colorCmdLine()
    usecase "Export Keys" as exportKeys $colorCmdLine()
    usecase "Show Node Info" as showNodeInfo $colorCmdLine()
    usecase "Get Ticket" as getTicket $colorCmdLine()
    usecase "Create Message" as createMessage $colorCmdLine()

    createKeys -[hidden]left- importKeys
    importKeys -[hidden]left- createInvite
    createInvite -[hidden]left- importInvite
    importInvite -[hidden]left- exportKeys
    exportKeys -[hidden]left- showNodeInfo
    showNodeInfo -[hidden]left- getTicket
    getTicket -[hidden]left- createMessage 


    usecase "Insert Node" as insertNode $colorPersistence()

    createKeys .down-> insertNode : <<include>>
    importKeys .down-> insertNode : <<include>>

    usecase "Insert Invite" as insertInvite $colorPersistence()
    createInvite .down-> insertInvite : <<include>>

    usecase "Insert MyPub" as insertMyPub $colorPersistence()
    importInvite .down-> insertMyPub : <<include>>

    usecase "Read Invite" as readInvite $colorProtocol()
    getTicket .down-> readInvite : <<include>>

    usecase "Send Invite" as sendInvite $colorProtocol()
    getTicket .down-> sendInvite : <<include>>
    readInvite -[hidden]left- sendInvite

    usecase "Read Node" as readNode $colorPersistence()
    insertNode -[hidden]down- readNode

    usecase "Send Ticket" as sendTicket $colorProtocol()
    readInvite -[hidden]down- sendTicket

    usecase "Insert msgBlock" as insertMsgBlock $colorPersistence()


    createKeys .down-> readNode : <<include>>
    importKeys .down-> readNode : <<include>>
    createInvite .down->  readNode : <<include>>
    importInvite .down->  readNode : <<include>>
    exportKeys .down-> readNode : <<include>>
    showNodeInfo .down-> readNode: <<include>>
    createMessage .down-> insertMsgBlock: <<include>>

} 

u -- createKeys
u -- importKeys
u -- createInvite
u -- importInvite
u -- exportKeys
u -- showNodeInfo
sendTicket -down- Pub

@enduml